…
``` r
load_mgcv()
df <- data_sim("eg4")
m <- gam(y ~ fac + s(x2, by = fac) + s(x0), data = df, method = "REML")
difference_smooths(m, smooth = "s(x2)")
```

    ## # A tibble: 300 x 9
    ##    smooth by    level_1 level_2  diff    se   lower upper       x2
    ##    <chr>  <chr> <chr>   <chr>   <dbl> <dbl>   <dbl> <dbl>    <dbl>
    ##  1 s(x2)  fac   1       2       0.759 0.799 -0.808   2.33 0.000757
    ##  2 s(x2)  fac   1       2       0.800 0.750 -0.669   2.27 0.0108  
    ##  3 s(x2)  fac   1       2       0.840 0.702 -0.536   2.22 0.0209  
    ##  4 s(x2)  fac   1       2       0.881 0.657 -0.407   2.17 0.0310  
    ##  5 s(x2)  fac   1       2       0.921 0.615 -0.285   2.13 0.0411  
    ##  6 s(x2)  fac   1       2       0.961 0.577 -0.169   2.09 0.0512  
    ##  7 s(x2)  fac   1       2       1.00  0.542 -0.0621  2.06 0.0613  
    ##  8 s(x2)  fac   1       2       1.04  0.511  0.0370  2.04 0.0714  
    ##  9 s(x2)  fac   1       2       1.08  0.484  0.128   2.03 0.0815  
    ## 10 s(x2)  fac   1       2       1.11  0.461  0.211   2.02 0.0916  
    ## # ... with 290 more rows
…
